<?xml version="1.0" encoding="UTF-8"?>
<svg width="18px" height="19px" viewBox="0 0 18 19" version="1.1" xmlns="http://www.w3.org/2000/svg" xmlns:xlink="http://www.w3.org/1999/xlink">
    <!-- Generator: Sketch 42 (36781) - http://www.bohemiancoding.com/sketch -->
    <title>Shape</title>
    <desc>Created with Sketch.</desc>
    <defs></defs>
    <g id="Page-1" stroke="none" stroke-width="1" fill="none" fill-rule="evenodd">
        <g id="2" transform="translate(-598.000000, -640.000000)" fill="#FFFFFF">
            <g id="ログイン" transform="translate(540.000000, 216.000000)">
                <g id="g_txt" transform="translate(58.000000, 424.000000)">
                    <path d="M9.18367347,7.87172012 L9.18367347,11.0204082 L14.3921283,11.0204082 C14.1822157,12.3717201 12.8177843,14.9825073 9.18367347,14.9825073 C6.04810496,14.9825073 3.48979592,12.3848397 3.48979592,9.18367347 C3.48979592,5.98250729 6.04810496,3.38483965 9.18367347,3.38483965 C10.96793,3.38483965 12.1618076,4.14577259 12.8440233,4.80174927 L15.3367347,2.40087464 C13.7361516,0.905247813 11.6632653,0 9.18367347,0 C4.10641399,0 0,4.10641399 0,9.18367347 C0,14.2609329 4.10641399,18.3673469 9.18367347,18.3673469 C14.483965,18.3673469 18,14.6413994 18,9.39358601 C18,8.79008746 17.9344023,8.33090379 17.8556851,7.87172012 L9.18367347,7.87172012 L9.18367347,7.87172012 Z" id="Shape"></path>
                </g>
            </g>
        </g>
    </g>
</svg>